{
  "manifest": {
    "publishingInformation": {
      "locales": {        
        "en-AU": {
          "name": "bounty-hunter",
          "summary": "Sample Short Description",
          "description": "Sample Full Description",
          "examplePhrases": [
            "Alexa open hello world",
            "hello",
            "help"
          ],
          "keywords": []
        }
      },
      "isAvailableWorldwide": true,
      "testingInstructions": "Sample Testing Instructions.",
      "category": "KNOWLEDGE_AND_TRIVIA",
      "distributionCountries": []
    },
    "apis": {
      "custom": {
        "endpoint": {
          "sourceDir": "lambda/py/lambda_upload",
          "uri": "ask-custom-bounty-hunter-default"
        }
      }
    },
    "manifestVersion": "1.0"
  }
}
